<?xml version="1.0" encoding="utf-8"?>
<!-- Generator: Adobe Illustrator 16.0.0, SVG Export Plug-In . SVG Version: 6.00 Build 0)  -->
<!DOCTYPE svg PUBLIC "-//W3C//DTD SVG 1.1//EN" "http://www.w3.org/Graphics/SVG/1.1/DTD/svg11.dtd">
<svg version="1.1" id="Calque_1" xmlns="http://www.w3.org/2000/svg" xmlns:xlink="http://www.w3.org/1999/xlink" x="0px" y="0px"
	 width="50px" height="50px" viewBox="0 0 50 50" enable-background="new 0 0 50 50" xml:space="preserve">
<polygon fill="#76B738" points="1.514,18.355 47.719,18.355 46.188,24.016 47.642,29.371 1.361,29.371 2.793,23.794 "/>
<path fill="#76B738" d="M4.804,13.612c0,0,12.622-1.683,20.118-7.344c0,0,8.722,6.043,19.89,7.573c0,0,0.459,25.092-19.89,32.359
	C24.922,46.201,6.717,42.299,4.804,13.612z"/>
<g>
	<g>
		<text transform="matrix(1 0 0 1 11.0288 27.1445)" fill="#2B2A2B" font-family="'Oswald-Medium'" font-size="8.9231">BADGE</text>
	</g>
	<text transform="matrix(1 0 0 1 17.7529 16.5229)" fill="#2B2A2B" font-family="'Montserrat-Regular'" font-size="2.355">LOREM IPSUM</text>
	<path fill="#2B2A2B" d="M11.525,13.52l0.115,0.445c0.257-0.066,0.515-0.136,0.768-0.207l-0.123-0.444
		C12.033,13.384,11.778,13.454,11.525,13.52z"/>
	<path fill="#2B2A2B" d="M30.401,41.686l0.258,0.383c0.219-0.148,0.439-0.303,0.654-0.459l-0.271-0.373
		C30.831,41.391,30.616,41.541,30.401,41.686z"/>
	<path fill="#2B2A2B" d="M27.695,43.252l0.203,0.414c0.239-0.117,0.478-0.24,0.711-0.363l-0.218-0.408
		C28.164,43.018,27.93,43.137,27.695,43.252z"/>
	<path fill="#2B2A2B" d="M29.076,42.516l0.229,0.398c0.229-0.133,0.46-0.271,0.684-0.41l-0.244-0.393
		C29.526,42.25,29.301,42.385,29.076,42.516z"/>
	<path fill="#2B2A2B" d="M39.985,30.395l-0.422-0.187c-0.105,0.24-0.214,0.48-0.324,0.715l0.417,0.195
		C39.768,30.881,39.878,30.637,39.985,30.395z"/>
	<path fill="#2B2A2B" d="M14.292,37.811l0.351-0.301c-0.161-0.188-0.321-0.381-0.477-0.574l-0.023-0.027l-0.359,0.287l0.023,0.029
		C13.965,37.422,14.129,37.619,14.292,37.811z"/>
	<path fill="#2B2A2B" d="M10.041,31.104l0.418-0.196c-0.109-0.232-0.219-0.473-0.324-0.713L9.713,30.38
		C9.82,30.623,9.931,30.867,10.041,31.104z"/>
	<path fill="#2B2A2B" d="M26.269,43.893l0.175,0.426c0.245-0.1,0.493-0.205,0.732-0.314l-0.188-0.42
		C26.752,43.689,26.51,43.795,26.269,43.893z"/>
	<path fill="#2B2A2B" d="M22.512,43.996c0.24,0.109,0.487,0.215,0.732,0.316l0.176-0.428c-0.24-0.098-0.482-0.201-0.719-0.309
		L22.512,43.996z"/>
	<path fill="#2B2A2B" d="M21.079,43.293c0.233,0.125,0.472,0.246,0.71,0.363l0.204-0.412c-0.233-0.115-0.468-0.236-0.696-0.357
		L21.079,43.293z"/>
	<path fill="#2B2A2B" d="M24.853,44.422c-0.235-0.08-0.472-0.164-0.704-0.25l-0.16,0.432c0.247,0.092,0.5,0.182,0.752,0.266
		l0.103-0.309l0.105,0.314l0.021-0.006c0.246-0.082,0.491-0.17,0.732-0.26l-0.161-0.432C25.314,44.262,25.084,44.344,24.853,44.422z
		"/>
	<path fill="#2B2A2B" d="M39.312,31.834l-0.412-0.205c-0.118,0.236-0.237,0.471-0.357,0.699l0.407,0.215
		C39.071,32.312,39.193,32.073,39.312,31.834z"/>
	<path fill="#2B2A2B" d="M35.898,37.225l0.013-0.016l-0.36-0.289l-0.012,0.016c-0.159,0.197-0.322,0.395-0.488,0.588l0.351,0.299
		C35.569,37.627,35.737,37.426,35.898,37.225z"/>
	<path fill="#2B2A2B" d="M6.541,14.96L6.08,14.993c0.02,0.262,0.041,0.529,0.064,0.792l0.459-0.04
		C6.58,15.483,6.559,15.22,6.541,14.96z"/>
	<path fill="#2B2A2B" d="M38.569,33.242l-0.402-0.225c-0.127,0.228-0.26,0.457-0.392,0.68l0.396,0.234
		C38.307,33.706,38.44,33.474,38.569,33.242z"/>
	<path fill="#2B2A2B" d="M16.825,39.75c-0.192-0.174-0.386-0.352-0.573-0.533l-0.319,0.334c0.191,0.184,0.388,0.365,0.585,0.543
		L16.825,39.75z"/>
	<path fill="#2B2A2B" d="M15.697,38.666c-0.182-0.186-0.361-0.377-0.537-0.57l-0.341,0.313c0.179,0.195,0.363,0.391,0.548,0.58
		L15.697,38.666z"/>
	<path fill="#2B2A2B" d="M32.866,39.762l0.308,0.344c0.196-0.176,0.394-0.359,0.585-0.543l-0.319-0.332
		C33.252,39.41,33.06,39.59,32.866,39.762z"/>
	<path fill="#2B2A2B" d="M10.748,32.529l0.408-0.214c-0.12-0.229-0.24-0.464-0.357-0.699l-0.412,0.205
		C10.505,32.06,10.627,32.297,10.748,32.529z"/>
	<path fill="#2B2A2B" d="M36.871,35.937l-0.376-0.267c-0.152,0.214-0.308,0.428-0.463,0.633l0.369,0.277
		C36.559,36.371,36.717,36.154,36.871,35.937z"/>
	<path fill="#2B2A2B" d="M24.011,8.668l-0.253-0.386c-0.215,0.141-0.438,0.283-0.661,0.421l0.243,0.392
		C23.566,8.955,23.791,8.811,24.011,8.668z"/>
	<path fill="#2B2A2B" d="M37.758,34.611l-0.391-0.244c-0.14,0.222-0.283,0.443-0.427,0.658l0.383,0.256
		C37.47,35.063,37.614,34.838,37.758,34.611z"/>
	<path fill="#2B2A2B" d="M34.873,38.42l-0.341-0.311c-0.175,0.193-0.355,0.385-0.537,0.57L34.326,39
		C34.51,38.813,34.694,38.617,34.873,38.42z"/>
	<path fill="#2B2A2B" d="M19.699,42.492c0.225,0.141,0.453,0.279,0.684,0.412l0.23-0.398c-0.225-0.131-0.449-0.266-0.67-0.404
		L19.699,42.492z"/>
	<path fill="#2B2A2B" d="M31.667,40.768l0.283,0.363c0.208-0.164,0.417-0.332,0.621-0.502l-0.296-0.354
		C32.076,40.441,31.87,40.607,31.667,40.768z"/>
	<path fill="#2B2A2B" d="M21.742,9.498L21.968,9.9c0.231-0.129,0.464-0.262,0.69-0.395l-0.234-0.398
		C22.201,9.239,21.971,9.371,21.742,9.498z"/>
	<path fill="#2B2A2B" d="M25.718,8.683c0.219,0.143,0.444,0.287,0.672,0.427l0.242-0.392c-0.224-0.139-0.446-0.28-0.663-0.42
		L25.718,8.683z"/>
	<path fill="#2B2A2B" d="M9.996,13.895l0.104,0.449c0.257-0.059,0.517-0.12,0.771-0.184l-0.109-0.447
		C10.508,13.775,10.251,13.836,9.996,13.895z"/>
	<path fill="#2B2A2B" d="M27.071,9.52c0.226,0.132,0.458,0.265,0.69,0.394l0.224-0.403c-0.229-0.127-0.458-0.259-0.681-0.389
		L27.071,9.52z"/>
	<path fill="#2B2A2B" d="M28.46,10.293c0.23,0.122,0.469,0.245,0.706,0.364l0.207-0.412c-0.234-0.118-0.469-0.239-0.697-0.359
		L28.46,10.293z"/>
	<path fill="#2B2A2B" d="M29.88,11.007c0.235,0.113,0.479,0.226,0.72,0.335l0.19-0.419c-0.238-0.108-0.478-0.22-0.712-0.332
		L29.88,11.007z"/>
	<path fill="#2B2A2B" d="M18.936,10.914l0.191,0.419c0.242-0.11,0.484-0.223,0.721-0.336l-0.199-0.416
		C19.414,10.692,19.175,10.804,18.936,10.914z"/>
	<path fill="#2B2A2B" d="M14.543,12.628l0.145,0.437c0.252-0.083,0.505-0.169,0.752-0.255l-0.152-0.436
		C15.043,12.46,14.792,12.545,14.543,12.628z"/>
	<path fill="#2B2A2B" d="M13.041,13.098l0.131,0.442c0.252-0.075,0.508-0.153,0.76-0.231l-0.138-0.44
		C13.545,12.947,13.291,13.024,13.041,13.098z"/>
	<path fill="#2B2A2B" d="M16.027,12.108l0.159,0.432c0.249-0.091,0.499-0.186,0.743-0.281l-0.167-0.43
		C16.521,11.923,16.273,12.018,16.027,12.108z"/>
	<path fill="#2B2A2B" d="M17.492,11.538l0.176,0.427c0.244-0.101,0.49-0.205,0.732-0.309l-0.184-0.423
		C17.979,11.335,17.734,11.438,17.492,11.538z"/>
	<path fill="#2B2A2B" d="M31.325,11.664c0.241,0.104,0.487,0.208,0.732,0.308l0.174-0.426c-0.241-0.099-0.485-0.202-0.723-0.305
		L31.325,11.664z"/>
	<path fill="#2B2A2B" d="M20.354,10.234l0.207,0.412c0.237-0.119,0.475-0.242,0.707-0.365l-0.215-0.407
		C20.822,9.995,20.588,10.116,20.354,10.234z"/>
	<path fill="#2B2A2B" d="M41.952,14.828c0.259,0.047,0.521,0.094,0.781,0.138l0.077-0.455c-0.258-0.043-0.518-0.089-0.774-0.137
		L41.952,14.828z"/>
	<path fill="#2B2A2B" d="M6.908,14.508l0.078,0.455c0.258-0.044,0.521-0.09,0.781-0.138l-0.084-0.454
		C7.426,14.419,7.166,14.465,6.908,14.508z"/>
	<path fill="#2B2A2B" d="M43.101,15.759l0.459,0.04c0.022-0.265,0.045-0.531,0.063-0.792l-0.46-0.033
		C43.145,15.232,43.123,15.497,43.101,15.759z"/>
	<path fill="#2B2A2B" d="M42.939,17.324l0.457,0.054c0.031-0.264,0.061-0.529,0.087-0.789l-0.459-0.047
		C42.999,16.8,42.97,17.063,42.939,17.324z"/>
	<path fill="#2B2A2B" d="M32.795,12.267c0.244,0.095,0.495,0.19,0.742,0.281l0.159-0.432c-0.244-0.091-0.492-0.185-0.734-0.279
		L32.795,12.267z"/>
	<path fill="#2B2A2B" d="M17.119,40.615c0.203,0.17,0.412,0.34,0.62,0.502l0.284-0.361c-0.204-0.16-0.408-0.326-0.607-0.492
		L17.119,40.615z"/>
	<path fill="#2B2A2B" d="M18.377,41.598c0.214,0.156,0.434,0.311,0.653,0.459l0.258-0.381c-0.216-0.146-0.431-0.297-0.64-0.449
		L18.377,41.598z"/>
	<path fill="#2B2A2B" d="M6.219,16.575c0.027,0.262,0.057,0.528,0.088,0.789l0.457-0.054c-0.03-0.258-0.059-0.522-0.086-0.782
		L6.219,16.575z"/>
	<path fill="#2B2A2B" d="M35.791,13.315c0.25,0.078,0.506,0.155,0.76,0.23l0.131-0.442c-0.252-0.075-0.505-0.151-0.753-0.229
		L35.791,13.315z"/>
	<path fill="#2B2A2B" d="M37.314,13.764c0.254,0.071,0.512,0.14,0.766,0.207l0.116-0.446c-0.252-0.066-0.508-0.135-0.759-0.205
		L37.314,13.764z"/>
	<path fill="#2B2A2B" d="M40.396,14.519c0.257,0.055,0.519,0.108,0.777,0.16l0.091-0.452c-0.258-0.051-0.517-0.104-0.771-0.158
		L40.396,14.519z"/>
	<path fill="#2B2A2B" d="M34.284,12.816c0.247,0.086,0.501,0.172,0.752,0.255l0.145-0.437c-0.249-0.083-0.5-0.168-0.744-0.253
		L34.284,12.816z"/>
	<path fill="#2B2A2B" d="M8.457,14.224l0.09,0.453c0.258-0.052,0.52-0.106,0.777-0.161l-0.097-0.451
		C8.973,14.119,8.713,14.173,8.457,14.224z"/>
	<path fill="#2B2A2B" d="M38.85,14.165c0.254,0.062,0.514,0.124,0.771,0.183l0.104-0.449c-0.257-0.059-0.514-0.12-0.766-0.181
		L38.85,14.165z"/>
	<path fill="#2B2A2B" d="M24.853,8.097c0.067,0.048,0.136,0.096,0.204,0.143l0.262-0.379c-0.111-0.077-0.223-0.155-0.332-0.233
		l-0.134-0.095l-0.134,0.095C24.616,7.7,24.514,7.772,24.41,7.845l0.262,0.379C24.732,8.182,24.793,8.14,24.853,8.097z"/>
	<path fill="#2B2A2B" d="M11.525,33.92l0.396-0.235c-0.133-0.224-0.264-0.452-0.392-0.681l-0.402,0.226
		C11.258,33.461,11.391,33.693,11.525,33.92z"/>
	<path fill="#2B2A2B" d="M13.662,36.289c-0.155-0.206-0.311-0.419-0.462-0.632l-0.376,0.267c0.154,0.217,0.313,0.434,0.47,0.643
		L13.662,36.289z"/>
	<path fill="#2B2A2B" d="M12.756,35.012c-0.143-0.215-0.287-0.437-0.426-0.658L11.939,34.6c0.142,0.225,0.287,0.449,0.434,0.668
		L12.756,35.012z"/>
	<path fill="#2B2A2B" d="M5.563,29.729c1.396,3.707,3.205,6.962,5.396,9.7c3.348,4.178,7.597,7.156,12.629,8.85
		c0.379,0.129,0.768,0.25,1.155,0.363l0.11,0.031l0.109-0.031c0.193-0.057,0.39-0.115,0.583-0.176
		c0.19-0.061,0.383-0.123,0.572-0.188c5.032-1.693,9.28-4.672,12.627-8.85c2.192-2.738,4.001-5.993,5.396-9.7h4.049l-1.625-5.713
		l1.615-6.068h-1.229c0.439-3.625,0.383-6.081,0.382-6.123l-0.01-0.347l-0.346-0.035c-4.604-0.472-8.892-1.473-12.743-2.974
		c-3.909-1.524-6.508-3.233-8-4.4c-0.103-0.08-0.202-0.159-0.3-0.239c-0.285-0.231-0.56-0.467-0.815-0.7l-0.266-0.243l-0.267,0.243
		c-0.179,0.164-0.38,0.337-0.592,0.515c-0.181,0.15-0.352,0.289-0.524,0.424c-1.492,1.166-4.092,2.875-8,4.399
		c-3.852,1.501-8.139,2.502-12.744,2.974l-0.346,0.035l-0.01,0.347c0,0.042-0.057,2.498,0.382,6.123H1.012l1.32,6.204L1,29.729
		H5.563z M3.159,12.193c4.542-0.494,8.779-1.498,12.599-2.987c3.998-1.559,6.666-3.315,8.199-4.513
		c0.18-0.14,0.357-0.284,0.545-0.44c0.121-0.102,0.238-0.202,0.351-0.3c0.188,0.165,0.384,0.33,0.584,0.492
		c0.103,0.083,0.205,0.165,0.312,0.248c1.533,1.199,4.201,2.955,8.198,4.514c3.82,1.489,8.057,2.493,12.6,2.987
		c0,0.797-0.04,2.918-0.388,5.755h-1.281c0.22-1.749,0.318-3.223,0.363-4.268l0.016-0.36l-0.356-0.048
		c-4.084-0.552-7.924-1.521-11.413-2.882c-3.216-1.254-6.118-2.843-8.393-4.597l-0.241-0.187l-0.241,0.187
		c-2.275,1.754-5.178,3.343-8.393,4.597c-3.489,1.36-7.33,2.33-11.412,2.882L4.449,13.32l0.016,0.36
		c0.043,1.045,0.144,2.519,0.363,4.268h-1.28C3.199,15.111,3.159,12.99,3.159,12.193z M5.625,17.948
		c-0.201-1.573-0.304-2.925-0.355-3.943c4.013-0.568,7.791-1.536,11.236-2.879c3.172-1.236,6.051-2.797,8.347-4.523
		c2.295,1.726,5.173,3.287,8.346,4.523c3.446,1.343,7.225,2.311,11.236,2.879c-0.051,1.018-0.153,2.37-0.354,3.943H5.625z
		 M3.248,18.739H3.65h1.283h0.398h0.399h0.757h0.466h35.798h0.465h0.757h0.399h0.399h1.282h0.403h0.393h0.303l-0.771,2.896
		l-0.637,2.388l0.07,0.245l1.328,4.671h-2.713H44.01h-0.419h-1.354h-0.422h-0.422H40.59h-0.496H9.611H9.115H8.313H7.891H7.469H6.114
		h-0.42H5.273H2.001l1.142-4.777l-1.154-5.423h0.865H3.248z M38.128,38.936c-3.25,4.059-7.376,6.951-12.263,8.596
		c-0.186,0.063-0.371,0.123-0.556,0.182c-0.151,0.047-0.305,0.094-0.456,0.139c-0.34-0.1-0.68-0.207-1.015-0.32
		c-4.882-1.645-9.005-4.533-12.255-8.586c-2.088-2.607-3.822-5.698-5.175-9.216h1.365c1.285,3.224,2.903,6.061,4.833,8.46
		c3.09,3.84,7.006,6.578,11.641,8.139c0.16,0.053,0.324,0.107,0.486,0.158l0.119,0.037l0.118-0.037
		c0.164-0.051,0.329-0.105,0.488-0.16c4.633-1.559,8.547-4.297,11.638-8.137c1.93-2.399,3.548-5.236,4.832-8.46h1.366
		C41.945,33.243,40.213,36.332,38.128,38.936z M41.08,29.729c-1.236,3.03-2.776,5.699-4.599,7.964
		c-2.993,3.721-6.787,6.373-11.273,7.885c-0.116,0.039-0.235,0.078-0.354,0.117c-0.119-0.039-0.237-0.078-0.354-0.117
		c-4.489-1.51-8.283-4.164-11.276-7.885c-1.823-2.265-3.362-4.934-4.599-7.964H41.08z"/>
	<path fill="#2B2A2B" d="M4.387,24.63c0.018,0.002,0.035,0.005,0.053,0.005c0.125,0,0.236-0.047,0.324-0.123
		c0.104-0.09,0.172-0.223,0.172-0.373c0-0.233-0.162-0.428-0.379-0.48C4.52,23.65,4.48,23.644,4.439,23.644
		c-0.102,0-0.195,0.031-0.273,0.083c-0.134,0.089-0.223,0.241-0.223,0.414C3.943,24.396,4.137,24.604,4.387,24.63z"/>
	<path fill="#2B2A2B" d="M43.613,24.57c0.072,0.041,0.154,0.065,0.241,0.065c0.273,0,0.497-0.222,0.497-0.496
		s-0.224-0.496-0.497-0.496c-0.003,0-0.006,0.001-0.01,0.001c-0.27,0.004-0.486,0.224-0.486,0.495
		C43.358,24.326,43.463,24.486,43.613,24.57z"/>
	<path fill="#2B2A2B" d="M16.818,33.313c0.13,0.801,0.428,3.422,2.455,3.479c0,0,1.84,0.074,2.23,0
		c0.391-0.076,1.785-0.391,2.324-2.529c0,0,0.111-0.48,0.368-0.87c0.323-0.49,1.046-0.49,1.369,0c0.256,0.39,0.367,0.87,0.367,0.87
		c0.539,2.139,1.934,2.453,2.324,2.529c0.391,0.074,2.231,0,2.231,0c2.026-0.057,2.323-2.678,2.454-3.479
		c0.13-0.799,0.726-0.613,0.726-0.613v-1.45c-4.965-0.837-7.346,0.224-7.717,0.465c-0.093,0.06-0.215,0.108-0.345,0.148
		c-0.473,0.142-0.979,0.142-1.452,0c-0.131-0.04-0.252-0.089-0.345-0.148c-0.372-0.241-2.751-1.302-7.716-0.465v1.45
		C16.094,32.699,16.688,32.514,16.818,33.313z M27.012,32.027c0.872-0.27,1.819-0.4,2.898-0.4c0.078,0,0.159,0.002,0.238,0.003
		c0.906,0.017,1.524,0.261,1.843,0.728c0.247,0.362,0.266,0.803,0.237,1.108c-0.03,0.341-0.125,0.597-0.125,0.599l-0.004,0.01
		l-0.002,0.01c-0.093,0.418-0.208,0.764-0.353,1.057c-0.212,0.433-0.55,0.933-1.277,0.953H30.46c-0.009,0-0.811,0.033-1.451,0.033
		c-0.5,0-0.617-0.021-0.621-0.021c-0.804-0.154-1.35-0.745-1.823-1.979c-0.123-0.32-0.191-0.723-0.202-1.195
		C26.354,32.52,26.62,32.148,27.012,32.027z M17.77,32.357c0.316-0.467,0.938-0.711,1.843-0.728
		c0.079-0.001,0.159-0.003,0.238-0.003c1.079,0,2.026,0.131,2.897,0.4c0.393,0.121,0.66,0.492,0.65,0.904
		c-0.011,0.473-0.079,0.875-0.202,1.195c-0.474,1.233-1.019,1.824-1.822,1.979c-0.005,0-0.122,0.021-0.622,0.021
		c-0.641,0-1.443-0.033-1.451-0.033h-0.008c-0.728-0.021-1.064-0.521-1.277-0.953c-0.145-0.293-0.26-0.639-0.353-1.057l-0.002-0.01
		l-0.004-0.01c-0.001-0.002-0.095-0.258-0.126-0.599C17.504,33.16,17.522,32.72,17.77,32.357z"/>
	<path fill="#2B2A2B" d="M27.235,37.582c-0.868-0.684-1.75-0.498-2.278-0.271c-0.526-0.227-1.408-0.412-2.276,0.271
		c-1.366,1.078-2.835,0.51-2.869-0.141c0,0-0.985,3.801,2.869,3.457c1.628-0.145,1.948-0.516,2.276-0.803
		c0.329,0.287,0.65,0.658,2.278,0.803c3.854,0.344,2.869-3.457,2.869-3.457C30.07,38.092,28.602,38.66,27.235,37.582z"/>
	<polygon fill="#2B2A2B" points="25.275,11.577 24.721,10.454 24.167,11.577 22.927,11.757 23.824,12.632 23.612,13.867 
		24.721,13.284 25.83,13.867 25.618,12.632 26.516,11.757 	"/>
</g>
</svg>
