<?xml version="1.0" encoding="utf-8"?>
<!-- Generator: Adobe Illustrator 16.0.0, SVG Export Plug-In . SVG Version: 6.00 Build 0)  -->
<!DOCTYPE svg PUBLIC "-//W3C//DTD SVG 1.1//EN" "http://www.w3.org/Graphics/SVG/1.1/DTD/svg11.dtd">
<svg version="1.1" id="Calque_1" xmlns="http://www.w3.org/2000/svg" xmlns:xlink="http://www.w3.org/1999/xlink" x="0px" y="0px"
	 width="50px" height="50px" viewBox="0 0 50 50" enable-background="new 0 0 50 50" xml:space="preserve">
<path fill="#2B2A2B" d="M33.816,41.784l0.232,0.397c0.229-0.134,0.459-0.275,0.681-0.421l-0.251-0.387
	C34.262,41.516,34.039,41.653,33.816,41.784z"/>
<path fill="#2B2A2B" d="M17.892,43.12c0.243,0.106,0.493,0.209,0.741,0.304l0.164-0.431c-0.241-0.093-0.483-0.192-0.721-0.296
	L17.892,43.12z"/>
<path fill="#2B2A2B" d="M22.503,44.411c0.265,0.036,0.532,0.065,0.797,0.091l0.042-0.46c-0.258-0.022-0.52-0.053-0.775-0.087
	L22.503,44.411z"/>
<path fill="#2B2A2B" d="M16.455,42.412c0.233,0.128,0.472,0.253,0.711,0.371l0.204-0.414c-0.232-0.114-0.465-0.235-0.691-0.36
	L16.455,42.412z"/>
<path fill="#2B2A2B" d="M20.929,44.123c0.259,0.06,0.522,0.115,0.784,0.162l0.083-0.453c-0.255-0.046-0.512-0.1-0.764-0.158
	L20.929,44.123z"/>
<path fill="#2B2A2B" d="M19.388,43.692c0.253,0.083,0.51,0.162,0.766,0.232l0.124-0.443c-0.249-0.069-0.5-0.146-0.746-0.227
	L19.388,43.692z"/>
<path fill="#2B2A2B" d="M25.202,44.112h-0.303c-0.259,0-0.521-0.006-0.78-0.019l-0.021,0.462c0.266,0.012,0.535,0.017,0.802,0.017
	h0.303c0.003,0,0.005,0,0.007,0c0.152,0,0.308-0.001,0.459-0.005l-0.012-0.461C25.505,44.11,25.354,44.112,25.202,44.112z"/>
<path fill="#2B2A2B" d="M26.435,44.068l0.032,0.46c0.267-0.02,0.534-0.044,0.798-0.075l-0.054-0.458
	C26.954,44.025,26.693,44.051,26.435,44.068z"/>
<path fill="#2B2A2B" d="M32.437,42.511l0.196,0.417c0.24-0.111,0.481-0.232,0.717-0.356l-0.215-0.407
	C32.905,42.284,32.671,42.401,32.437,42.511z"/>
<path fill="#2B2A2B" d="M30.997,43.107l0.156,0.434c0.249-0.09,0.501-0.188,0.747-0.289l-0.177-0.427
	C31.484,42.925,31.239,43.02,30.997,43.107z"/>
<path fill="#2B2A2B" d="M27.982,43.888l0.074,0.456c0.262-0.043,0.527-0.094,0.788-0.147l-0.096-0.451
	C28.496,43.798,28.238,43.847,27.982,43.888z"/>
<path fill="#2B2A2B" d="M29.508,43.566l0.115,0.447c0.259-0.067,0.518-0.141,0.771-0.22l-0.136-0.44
	C30.011,43.431,29.759,43.501,29.508,43.566z"/>
<g>
	<path fill="#729BD2" d="M6.099,32.448c0.9,3.132,2.582,6.001,4.949,8.369c3.68,3.68,8.571,5.706,13.776,5.706h0.301
		c5.203,0,10.096-2.026,13.775-5.706c2.367-2.368,4.05-5.237,4.948-8.369h4.57l-1.479-7.041l1.477-7.189h-4.568
		c-0.898-3.131-2.581-6.001-4.948-8.368c-3.68-3.68-8.572-5.707-13.775-5.707h-0.301c-5.205,0-10.097,2.026-13.776,5.707
		c-2.367,2.367-4.049,5.237-4.949,8.368H1.512l1.708,6.937l-1.701,7.293H6.099z"/>
	<g>
		<text transform="matrix(1 0 0 1 11.9473 28.5635)" fill="#2B2A2B" font-family="'Montserrat-Medium'" font-size="8.8588">BADGE</text>
	</g>
	<text transform="matrix(1 0 0 1 18.9854 36.6924)" fill="#2B2A2B" font-family="'Montserrat-Regular'" font-size="4.0491">LOREM</text>
	<text transform="matrix(1 0 0 1 20.1953 40.8799)" fill="#2B2A2B" font-family="'Montserrat-Regular'" font-size="3.5756">IPSUM</text>
	<path fill="#2B2A2B" d="M41.194,33.003c-0.091,0.243-0.188,0.486-0.288,0.725l0.424,0.18c0.104-0.244,0.204-0.494,0.297-0.743
		L41.194,33.003z"/>
	<path fill="#2B2A2B" d="M36.347,39.968l0.3,0.349c0.201-0.174,0.401-0.354,0.595-0.538l-0.317-0.333
		C36.735,39.623,36.541,39.8,36.347,39.968z"/>
	<path fill="#2B2A2B" d="M38.509,37.727l0.359,0.288c0.168-0.207,0.331-0.42,0.488-0.635l-0.373-0.271
		C38.831,37.315,38.672,37.523,38.509,37.727z"/>
	<path fill="#2B2A2B" d="M35.122,40.935l0.269,0.374c0.216-0.154,0.432-0.317,0.64-0.481l-0.285-0.362
		C35.541,40.626,35.332,40.783,35.122,40.935z"/>
	<path fill="#2B2A2B" d="M37.479,38.896l0.331,0.319c0.186-0.191,0.368-0.39,0.543-0.588l-0.347-0.305
		C37.837,38.515,37.658,38.708,37.479,38.896z"/>
	<path fill="#2B2A2B" d="M39.43,36.469l0.385,0.255c0.146-0.222,0.29-0.449,0.427-0.678l-0.396-0.236
		C39.713,36.031,39.573,36.253,39.43,36.469z"/>
	<path fill="#2B2A2B" d="M13.81,40.616c0.205,0.17,0.418,0.335,0.63,0.494l0.276-0.369c-0.207-0.154-0.414-0.316-0.613-0.481
		L13.81,40.616z"/>
	<path fill="#2B2A2B" d="M40.231,35.133l0.405,0.219c0.126-0.235,0.25-0.476,0.363-0.714l-0.415-0.2
		C40.473,34.671,40.354,34.904,40.231,35.133z"/>
	<path fill="#2B2A2B" d="M40.887,16.894l0.423-0.181c-0.104-0.245-0.216-0.49-0.331-0.729l-0.415,0.202
		C40.677,16.418,40.785,16.657,40.887,16.894z"/>
	<path fill="#2B2A2B" d="M15.091,41.575c0.221,0.149,0.446,0.296,0.673,0.434l0.241-0.392c-0.22-0.136-0.441-0.278-0.655-0.423
		L15.091,41.575z"/>
	<path fill="#2B2A2B" d="M40.613,15.271c-0.127-0.233-0.261-0.466-0.398-0.694l-0.396,0.238c0.135,0.222,0.265,0.45,0.388,0.677
		L40.613,15.271z"/>
	<path fill="#2B2A2B" d="M28.007,6.316c-0.262-0.042-0.529-0.078-0.794-0.108l-0.052,0.458c0.258,0.029,0.518,0.065,0.772,0.106
		L28.007,6.316z"/>
	<path fill="#2B2A2B" d="M8.771,18.043c0.083-0.244,0.175-0.49,0.271-0.731l-0.429-0.17c-0.098,0.248-0.191,0.5-0.278,0.751
		L8.771,18.043z"/>
	<path fill="#2B2A2B" d="M23.265,6.632l-0.044-0.459c-0.265,0.025-0.531,0.057-0.795,0.094l0.064,0.456
		C22.746,6.687,23.007,6.656,23.265,6.632z"/>
	<path fill="#2B2A2B" d="M20.203,7.207l-0.126-0.444C19.822,6.835,19.564,6.915,19.313,7l0.146,0.437
		C19.705,7.354,19.955,7.277,20.203,7.207z"/>
	<path fill="#2B2A2B" d="M10.452,14.537l-0.39-0.246c-0.143,0.225-0.28,0.456-0.411,0.687l0.4,0.228
		C10.18,14.981,10.313,14.756,10.452,14.537z"/>
	<path fill="#2B2A2B" d="M9.684,15.893l-0.412-0.209c-0.12,0.237-0.236,0.479-0.346,0.722l0.42,0.189
		C9.452,16.359,9.565,16.123,9.684,15.893z"/>
	<path fill="#2B2A2B" d="M12.619,39.546c0.189,0.188,0.386,0.371,0.583,0.55l0.309-0.344c-0.192-0.173-0.383-0.353-0.567-0.533
		L12.619,39.546z"/>
	<path fill="#2B2A2B" d="M29.574,6.641c-0.258-0.066-0.52-0.126-0.781-0.18L28.7,6.912c0.254,0.052,0.51,0.112,0.76,0.176
		L29.574,6.641z"/>
	<path fill="#2B2A2B" d="M31.105,7.109c-0.25-0.089-0.506-0.174-0.76-0.251l-0.135,0.441c0.247,0.075,0.496,0.158,0.739,0.245
		L31.105,7.109z"/>
	<path fill="#2B2A2B" d="M11.344,13.258l-0.366-0.28c-0.162,0.211-0.321,0.428-0.473,0.646l0.379,0.263
		C11.031,13.675,11.186,13.464,11.344,13.258z"/>
	<path fill="#2B2A2B" d="M24.82,6.556l-0.001-0.461c-0.267,0.001-0.535,0.009-0.801,0.021l0.023,0.46
		C24.3,6.563,24.562,6.557,24.82,6.556z"/>
	<path fill="#2B2A2B" d="M26.416,6.135c-0.265-0.018-0.535-0.03-0.801-0.036l-0.01,0.46c0.259,0.006,0.521,0.018,0.779,0.035
		L26.416,6.135z"/>
	<path fill="#2B2A2B" d="M14.654,9.972l-0.278-0.368c-0.211,0.16-0.423,0.327-0.628,0.497l0.294,0.355
		C14.242,10.29,14.447,10.127,14.654,9.972z"/>
	<path fill="#2B2A2B" d="M35.35,9.329c-0.217-0.155-0.439-0.306-0.662-0.45l-0.251,0.387c0.218,0.14,0.435,0.288,0.646,0.438
		L35.35,9.329z"/>
	<path fill="#2B2A2B" d="M36.608,10.317c-0.202-0.174-0.41-0.345-0.618-0.508l-0.285,0.362c0.203,0.159,0.406,0.326,0.603,0.495
		L36.608,10.317z"/>
	<path fill="#2B2A2B" d="M34.006,8.459c-0.229-0.133-0.466-0.264-0.701-0.387L33.091,8.48c0.229,0.12,0.459,0.247,0.683,0.377
		L34.006,8.459z"/>
	<path fill="#2B2A2B" d="M38.836,12.612c-0.167-0.206-0.342-0.412-0.518-0.611l-0.346,0.306c0.173,0.194,0.343,0.395,0.505,0.595
		L38.836,12.612z"/>
	<path fill="#2B2A2B" d="M37.442,11.735l0.332-0.321c-0.063-0.064-0.127-0.128-0.19-0.191c-0.125-0.125-0.254-0.25-0.381-0.371
		l-0.316,0.335c0.125,0.117,0.25,0.239,0.372,0.361C37.32,11.611,37.383,11.673,37.442,11.735z"/>
	<path fill="#2B2A2B" d="M32.586,7.717c-0.24-0.112-0.486-0.22-0.733-0.321l-0.175,0.426c0.24,0.098,0.48,0.203,0.714,0.312
		L32.586,7.717z"/>
	<path fill="#2B2A2B" d="M15.94,9.091l-0.244-0.392c-0.226,0.141-0.451,0.288-0.67,0.438l0.261,0.38
		C15.5,9.371,15.72,9.228,15.94,9.091z"/>
	<path fill="#2B2A2B" d="M18.727,7.702l-0.167-0.43c-0.247,0.097-0.496,0.199-0.739,0.307L18.006,8
		C18.243,7.896,18.484,7.795,18.727,7.702z"/>
	<path fill="#2B2A2B" d="M39.785,13.901c-0.147-0.221-0.302-0.441-0.46-0.655l-0.371,0.273c0.153,0.208,0.305,0.423,0.448,0.638
		L39.785,13.901z"/>
	<path fill="#2B2A2B" d="M13.454,10.967l-0.311-0.341c-0.197,0.178-0.392,0.363-0.581,0.551l0.325,0.327
		C13.071,11.322,13.262,11.141,13.454,10.967z"/>
	<path fill="#2B2A2B" d="M17.301,8.332l-0.205-0.413c-0.237,0.118-0.477,0.244-0.709,0.374l0.225,0.402
		C16.838,8.569,17.069,8.447,17.301,8.332z"/>
	<path fill="#2B2A2B" d="M12.347,12.065l-0.34-0.312c-0.18,0.195-0.357,0.398-0.528,0.6l0.354,0.297
		C11.997,12.453,12.171,12.256,12.347,12.065z"/>
	<path fill="#2B2A2B" d="M21.721,6.849l-0.085-0.453c-0.261,0.049-0.524,0.104-0.783,0.166l0.105,0.449
		C21.21,6.951,21.466,6.896,21.721,6.849z"/>
	<path fill="#2B2A2B" d="M11.529,38.374c0.173,0.201,0.351,0.403,0.532,0.599l0.338-0.314c-0.178-0.189-0.351-0.386-0.519-0.582
		L11.529,38.374z"/>
	<path fill="#2B2A2B" d="M9.377,34.141l-0.419,0.191c0.111,0.242,0.229,0.484,0.35,0.722l0.41-0.211
		C9.6,34.613,9.484,34.377,9.377,34.141z"/>
	<path fill="#2B2A2B" d="M9.69,35.757c0.132,0.23,0.271,0.461,0.414,0.685l0.389-0.247c-0.139-0.218-0.275-0.442-0.403-0.667
		L9.69,35.757z"/>
	<path fill="#2B2A2B" d="M8.796,32.696l-0.435,0.151c0.088,0.25,0.182,0.503,0.281,0.749l0.428-0.172
		C8.974,33.186,8.882,32.939,8.796,32.696z"/>
	<path fill="#2B2A2B" d="M10.55,37.107c0.153,0.218,0.313,0.435,0.476,0.645l0.364-0.282c-0.157-0.204-0.313-0.415-0.463-0.627
		L10.55,37.107z"/>
	<path fill="#2B2A2B" d="M5.944,32.536c0.911,3.169,2.613,6.073,5.01,8.47c3.725,3.727,8.677,5.776,13.945,5.776h0.303
		c5.269,0,10.22-2.05,13.945-5.776c2.396-2.396,4.099-5.301,5.01-8.47h4.626l-1.498-7.128l1.495-7.276h-4.623
		c-0.911-3.17-2.613-6.075-5.01-8.471c-3.726-3.725-8.677-5.776-13.945-5.776h-0.303c-5.269,0-10.221,2.052-13.945,5.776
		c-2.396,2.396-4.099,5.301-5.01,8.471H1.301l1.729,7.021l-1.724,7.384H5.944z M3.843,25.147l-1.139-4.622h2.712h0.402h0.402H7.66
		h0.468h35.753h0.402h0.401h2.797l-1.003,4.884l0.949,4.517h-2.71h-0.4h-0.399H8.09H7.622H6.184H5.784H5.383H2.728L3.843,25.147z
		 M24.899,4.675h0.303c5.057,0,9.812,1.969,13.386,5.544c2.246,2.245,3.856,4.955,4.745,7.913h-1.489
		c-0.074-0.226-0.151-0.453-0.235-0.676l-0.432,0.162c0.064,0.169,0.121,0.342,0.179,0.514H6.769
		c0.888-2.958,2.499-5.667,4.744-7.913C15.088,6.644,19.842,4.675,24.899,4.675z M6.55,18.922h1.472h0.477h35.053h0.405h0.409h3.446
		l-0.235,1.143h-2.969h-0.404h-0.401H6.3H5.897H5.494H2.591L2.31,18.922h3.426h0.41H6.55z M25.202,45.993h-0.303
		c-5.058,0-9.812-1.971-13.387-5.545c-2.245-2.246-3.856-4.956-4.744-7.912h36.564c-0.889,2.956-2.499,5.666-4.745,7.912
		C35.014,44.022,30.259,45.993,25.202,45.993z M43.551,31.745h-1.469h-0.481H8.499H8.021H6.55H6.146h-0.41H2.303l0.317-1.357h2.836
		h0.403h0.403h1.441h0.467h33.755h0.47h1.442h0.404h0.403h2.879l0.285,1.357h-3.444h-0.409H43.551z"/>
	<path fill="#2B2A2B" d="M22.201,16.279c2.037-0.219,2.438-0.779,2.85-1.209c0.411,0.431,0.812,0.99,2.85,1.209
		c4.823,0.518,3.59-5.214,3.59-5.214c-0.042,0.983-1.881,1.837-3.59,0.213c-1.086-1.032-2.189-0.752-2.85-0.411
		c-0.66-0.341-1.764-0.621-2.85,0.411c-1.711,1.624-3.548,0.77-3.591-0.213C18.61,11.065,17.377,16.797,22.201,16.279z"/>
</g>
</svg>
